{
    "TYPE": {
        "name": "TYPE",
        "properties": {
            "production": "client",
            "ssdURL": "client",
            "tenantName": "client",
            "appName": "client",
            "namespace": "client",
            "googleMapKey": "client",
            "useDefaultExceptionUI": "client",
            "isIDSEnabled": "client",
            "SSD_BASE_PATH": "server",
            "SSD_DEFAULT_PORT": "server",
            "webAppMountpoint": "server",
            "CLOCK_TOLERANCE": "server"
        }
    },
    "dev": {
        "name": "dev",
        "properties": {
            "production": false,
            "ssdURL": "http://localhost:8081/api/",
            "tenantName": "silverlake",
            "appName": "silverlakeaxisdemo",
            "namespace": "com.silverlake.silverlakeaxisdemo",
            "googleMapKey": "AIzaSyCSTnVwijjv0CFRA4MEeS-H6PAQc87LEoU",
            "useDefaultExceptionUI": true,
            "isIDSEnabled": "true",
            "SSD_BASE_PATH": "/api",
            "SSD_DEFAULT_PORT": "8081",
            "webAppMountpoint": "web",
            "CLOCK_TOLERANCE": "5"
        }
    },
    "prod": {
        "name": "prod",
        "properties": {
            "production": true,
            "ssdURL": "http://localhost:8081/api/",
            "tenantName": "silverlake",
            "appName": "silverlakeaxisdemo",
            "namespace": "com.silverlake.silverlakeaxisdemo",
            "googleMapKey": "AIzaSyCSTnVwijjv0CFRA4MEeS-H6PAQc87LEoU",
            "useDefaultExceptionUI": true,
            "isIDSEnabled": "true",
            "SSD_BASE_PATH": "/api",
            "SSD_DEFAULT_PORT": "8081",
            "webAppMountpoint": "web",
            "CLOCK_TOLERANCE": "5"
        }
    }
}
